…
And end up with a tidy dataframe:
# A tibble: 57 × 3
   town  loc   elt  
   <chr> <chr> <chr>
 1 a     1     foo  
 2 a     2     foo  
 3 a     3     foo  
 4 a     4     foo  
 5 a     5     foo  
 6 a     6     foo  
 7 a     7     foo  
 8 a     8     foo  
 9 a     9     foo  
10 a     10    foo  
# ℹ 47 more rows
# ℹ Use `print(n = ...)` to see more rows
